Name,CyrillicName,Sex,Division,Equipment,WeightClassKg,BodyweightKg,Best3SquatKg,Best3BenchKg,Best3DeadliftKg,TotalKg,Place
Olzhas Tleugazinov,Олжас Тлеугазинов,M,Amateur Teen 14-19,Wraps,67.5,66.5,110,95,170,375,2
Timur Lipenko,Тимур Липенко,M,Amateur Teen 14-19,Wraps,67.5,67.1,127.5,125,170,422.5,1
Evgeniy Kakotkin,Евгений Какоткин,M,Amateur Teen 14-19,Wraps,75,71.8,105,87.5,160,352.5,1
Nikita Sergeev,Никита Сергеев,M,Amateur Teen 14-19,Wraps,82.5,76.8,130,115,180,425,3
Aleksandr Shushpannikov,Александр Шушпанников,M,Amateur Teen 14-19,Wraps,82.5,81.6,130,80,175,385,4
Nik Ponomarev,Ник Пономарев,M,Amateur Teen 14-19,Wraps,82.5,82,190,125,202.5,517.5,2
Zhakshylyk Lukhras,Жакшылык Лухрас,M,Amateur Teen 14-19,Wraps,82.5,82.3,170,130,220,520,1
Altynbek Suynbaev,Алтынбек Суйнбаев,M,Amateur Teen 14-19,Wraps,90,87.3,220,125,240,585,1
Tamir Sadvakasov,Тамир Садвакасов,M,Amateur Teen 14-19,Wraps,90,87.8,200,90,180,470,2
Andrey Kolpakov,Андрей Колпаков,M,Amateur Teen 14-19,Wraps,100,99.3,250,165,240,655,1
Pavel Nesterenko,Павел Нестеренко,M,Amateur Teen 14-19,Wraps,110,109.2,210,150,220,580,1
Nikita Ilin,Никита Ильин,M,Amateur Teen 14-19,Wraps,110,104,215,130,210,555,2
Denis Nizhebortsev,Денис Нижеборцев,M,Amateur Teen 14-19,Raw,100,100,,180,,180,1
Pavel Nesterenko,Павел Нестеренко,M,Amateur Teen 14-19,Raw,110,109.2,,150,,150,1
Aleksandr Shushpannikov,Александр Шушпанников,M,Amateur Teen 14-19,Raw,82.5,81.6,,80,,80,2
Amir Adilbekov,Амир Адилбеков,M,Amateur Teen 14-19,Raw,82.5,81.7,,147.5,,147.5,1
Vladislav Filatov,Владислав Филатов,M,Amateur Teen 14-19,Raw,75,71.6,,100,,100,2
Kirill Garkavyy,Кирилл Гарькавый,M,Amateur Teen 14-19,Raw,75,74.9,,105,,105,1
Sergey Sedelnikov,Сергей Седельников,M,Amateur Teen 14-19,Raw,67.5,64.8,,80,,80,2
Timur Lipenko,Тимур Липенко,M,Amateur Teen 14-19,Raw,67.5,67.1,,125,,125,1
Baturkhan Mukhametov,Батурхан Мухаметов,M,Amateur Teen 14-19,Raw,60,60,,120,,120,1
Samat Bayzhanov,Самат Байжанов,M,Amateur Teen 14-19,Raw,56,50.7,,62.5,,62.5,1
Gusev Vladislav,Гусев Владислав,M,Amateur Juniors 20-23,Wraps,100,95,230,135,240,605,1
Uskembaev Dalel,Ускембаев Далель,M,Amateur Juniors 20-23,Wraps,100,95.6,220,150,215,585,2
Adil Kadyr,Адиль Кадыр,M,Amateur Juniors 20-23,Wraps,140,132.7,220,157.5,200,577.5,1
Adilet Sembaev,Адилет Сембаев,M,Amateur Juniors 20-23,Wraps,75,73.7,130,100,200,430,1
Koralasov Bagashar,Кораласов Багашар,M,Amateur Juniors 20-23,Wraps,75,72.3,115,100,165,380,2
Vladimir Safronov,Владимир Сафронов,M,Amateur Juniors 20-23,Wraps,82.5,76.2,140,100,180,420,1
Zardush Hasratov,,M,Amateur Juniors 20-23,Wraps,90,89,275,195,275,745,1
Vadim Ushakov,Вадим Ушаков,M,Amateur Juniors 20-23,Wraps,90,88.7,270,120,250,640,2
David Dzhvaridze,Давид Джваридзе,M,Amateur Juniors 20-23,Wraps,90,89.2,185,107.5,200,492.5,4
Pavel Shadrin,Павел Шадрин,M,Amateur Juniors 20-23,Wraps,90,87.2,220,135,230,585,3
Gusev Vladislav,Гусев Владислав,M,Amateur Juniors 20-23,Raw,100,95,,135,,135,1
Adil Kadyr,Адиль Кадыр,M,Amateur Juniors 20-23,Raw,140,132.7,,157.5,,157.5,1
Polat Fazliev,Полат Фазлиев,M,Amateur Juniors 20-23,Raw,75,73.8,,145,,145,3
Erkebulan Elubaev,Еркебулан Елубаев,M,Amateur Juniors 20-23,Raw,75,74.2,,150,,150,2
Daniyar Kakimzhanov,Данияр Какимжанов,M,Amateur Juniors 20-23,Raw,75,73.3,,162.5,,162.5,1
Zhomart Zhorabay,Жомарт Жорабай,M,Amateur Juniors 20-23,Wraps,82.5,76.7,,110,,110,4
Evgeniy Khakimulin,Евгений Хакимулин,M,Amateur Juniors 20-23,Wraps,82.5,79.7,,137.5,,137.5,3
Valentin Laptev,Валентин Лаптев,M,Amateur Juniors 20-23,Wraps,82.5,79.3,,140,,140,2
Dastan Zhumsakbaev,Дастан Жумсакбаев,M,Amateur Juniors 20-23,Wraps,82.5,80.8,,170,,170,1
Nikita Beda,Никита Беда,M,Amateur Juniors 20-23,Wraps,90,88.5,,160,,160,2
Aleksandr Smirnov,Александр Смирнов,M,Amateur Juniors 20-23,Wraps,90,88.1,,180,,180,1
Daulet Aubakirov,Даулет Аубакиров,M,Amateur Open,Wraps,60,59.5,220,105,200,525,1
Pavel May,Павел Май,M,Amateur Open,Wraps,75,73.3,140,112,140,392,1
Igor Ladygin,Игорь Ладыгин,M,Amateur Open,Wraps,90,89.5,210,170,250,630,4
Mikhail Vergush,Михаил Вергуш,M,Amateur Open,Wraps,90,89.1,230,160,260,650,2
Dmitriy Astaptsov,Дмитрий Астапцов,M,Amateur Open,Wraps,90,89.2,250,155,235,640,3
Andrey Nevezhin,Андрей Невежин,M,Amateur Open,Wraps,90,88,272.5,180,290,742.5,1
Andrey Klyuev,Андрей Клюев,M,Amateur Open,Wraps,100,96.5,210,155,235,600,3
Evgeniy Shchelkonogov,Евгений Щелконогов,M,Amateur Open,Wraps,100,94.2,205,165,255,625,2
Evgeniy Shkorko,Евгений Шкорко,M,Amateur Open,Wraps,100,98.7,260,205,285,750,1
Artur Lyubokonskis,Артур Любоконскис,M,Amateur Open,Wraps,110,105,260,180,270,710,1
Dzhuraev Otabek,Джураев Отабек,M,Amateur Open,Wraps,125,112,200,180,200,580,3
Bauyrzhan Amanzholov,Бауыржан Аманжолов,M,Amateur Open,Wraps,125,113.6,250,170,260,680,2
Evgeniy Myshonkov,Евгений Мышонков,M,Amateur Open,Wraps,125,111.1,250,182.5,295,727.5,1
Aleksey Larkin,Алексей Ларкин,M,Amateur Open,Raw,100,96,,195,,195,1
Medet Adilgazin,Медет Адилгазин,M,Amateur Open,Raw,100,98.5,,192.5,,192.5,2
Yan Voloshin,Ян Волошин,M,Amateur Open,Raw,100,98.2,,170,,170,3
Vladimir Murko,Владимир Мурко,M,Amateur Open,Raw,100,99,,140,,140,4
Vladislav Antonov,Владислав Антонов,M,Amateur Open,Raw,110,108.4,,210,,210,1
Otabek Dzhuraev,Отабек Джураев,M,Amateur Open,Raw,125,112,,180,,180,1
Deksan Pak,Дексан Пак,M,Amateur Open,Raw,67.5,61.7,,105,,105,1
Gagolin Aleksandr,Гаголин Александр,M,Amateur Open,Raw,75,74.3,,140,,140,1
Bolat Bulendin,Болат Булендин,M,Amateur Open,Raw,82.5,81,,155,,155,1
Vladimir Popovyan,Владимир Поповьян,M,Amateur Open,Raw,82.5,81.8,,155,,155,2
Igor Kim,Игорь Ким,M,Amateur Open,Raw,82.5,82.4,,150,,150,3
Aleksandr Mardachev,Александр Мардачев,M,Amateur Open,Raw,82.5,82.2,,140,,140,4
Ruslan Seferbekov,Руслан Сефербеков,M,Amateur Open,Raw,90,90,,182.5,,182.5,1
Evgeniy Onishchenko,Евгений Онищенко,M,Amateur Open,Raw,100,90.5,,180,,180,2
Igor Ladygin,Игорь Ладыгин,M,Amateur Open,Raw,90,89.5,,170,,170,3
Sergey Egorin,Сергей Егорин,M,Amateur Open,Raw,90,87.5,,165,,165,4
Egor Ankakimen,Егор Анкакимен,M,Amateur Open,Raw,90,89.9,,162.5,,162.5,5
Erzhan Kistafin,Ержан Кистафин,M,Amateur Open,Raw,90,87.3,,155,,155,6
Dmitriy Astaptsov,Дмитрий Астапцов,M,Amateur Open,Raw,90,89.2,,155,,155,7
Aleksandr Petrenko,Александр Петренко,M,Amateur Open,Raw,90,86,,125,,125,8
Vladimir Gavrish,Владимир Гавриш,M,Amateur Masters 40-49,Wraps,82.5,79.9,165,117.5,200,482.5,1
Vyacheslav Bondarev,Вячеслав Бондарев,M,Amateur Masters 40-49,Wraps,90,89.6,165,170,220,555,1
Kuanysh Nukishev,Куаныш Нукишев,M,Amateur Masters 40-49,Wraps,100,97,220,155,240,615,1
Oleg Usatenko,Олег Усатенко,M,Amateur Masters 40-49,Wraps,100,97.9,222.5,145,210,577.5,2
Sergey Yakovlev,Сергей Яковлев,M,Amateur Masters 40-49,Wraps,140+,158.5,325,217,345,887,1
Anatoliy Dorokhov,Анатолий Дорохов,M,Amateur Masters 40-49,Raw,75,72.6,,140,,140,1
Aleksandr Tyugay,Александр Тюгай,M,Amateur Masters 40-49,Raw,75,74.2,,125,,125,2
Masimzhan Ismailov,Масимжан Исмаилов,M,Amateur Masters 40-49,Raw,82.5,81.2,,147.5,,147.5,1
Vladimir Ashchepenkov,Владимир Ащепенков,M,Amateur Masters 40-49,Raw,82.5,82,,135,,135,2
Vitaliy Chernyavskiy,Виталий Чернявский,M,Amateur Masters 40-49,Raw,90,86.5,,177.5,,177.5,1
Denis Bondik,Денис Бондик,M,Amateur Masters 40-49,Raw,90,88.3,,175,,175,2
Vyacheslav Bondarev,Вячеслав Бондарев,M,Amateur Masters 40-49,Raw,90,89.6,,170,,170,3
Batyr Maudinov,Батыр Маудинов,M,Amateur Masters 40-49,Raw,100,94.9,,200,,200,1
Alim Marov,Алим Маров,M,Amateur Masters 40-49,Raw,100,94,,165,,165,2
Gennadiy Krechin,Геннадий Кречин,M,Amateur Masters 40-49,Raw,110,105.1,,202,,202,1
Andrey Tonkovich,Андрей Тонкович,M,Amateur Masters 40-49,Raw,110,107.3,,150,,150,2
Almas Mustafaev,Алмас Мустафаев,M,Amateur Masters 40-49,Raw,110,106,,135,,135,3
Stanislav Bekshaev,Станислав Бекшаев,M,Amateur Masters 40-49,Raw,125,117.3,,190,,190,1
Mukhtar Imanbaev,Мухтар Иманбаев,M,Amateur Masters 50-59,Raw,100,99.5,,170,,170,1
Murat Dzhaytabarov,Мурат Джайтабаров,M,Amateur Masters 50-59,Raw,110,100.4,,150,,150,1
Marat Dzhaylaubaev,Марат Джайлаубаев,M,Amateur Masters 50-59,Raw,110,104.9,,142.5,,142.5,2
Rashid Bariev,Рашид Бариев,M,Amateur Masters 50-59,Raw,110,107.1,,137.5,,137.5,3
Irkin Iminov,Иркин Иминов,M,Amateur Masters 50-59,Raw,52,51.5,,100,,100,1
Rashid Bariev,Рашид Бариев,M,Amateur Masters 50-59,Wraps,110,107.1,167.5,137.5,182.5,487.5,2
Murat Dzhaytabarov,Мурат Джайтабаров,M,Amateur Masters 50-59,Wraps,110,100.4,175,150,190,515,1
Mikhail Nakaybakov,Михаил Накайбаков,M,Amateur Masters 60-69,Raw,110,109.1,137.5,,,137.5,1
Sergey Klimov,Сергей Климов,M,Amateur Masters 60-69,Raw,82.5,82.1,75,,,75,1
Sergey Klimov,Сергей Климов,M,Amateur Masters 60-69,Wraps,82.5,82.1,110,75,130,315,1
Viktor Golovkin,Виктор Головкин,M,Amateur Masters 60-69,Wraps,90,84.4,210,105,200,515,1
Vladimir Yugay,Владимир Югай,M,Pro Open,Raw,82.5,78.3,,207.5,,207.5,1
Evgeniy Beloval,Евгений Беловал,M,Pro Open,Raw,90,88.7,,230,,230,1
Erlan Alkeev,Ерлан Алкеев,M,Pro Open,Raw,90,87.4,,212.5,,212.5,2
Grigoriy Misyurin,Григорий Мисюрин,M,Pro Open,Raw,90,89.4,,207.5,,207.5,3
Sergey Egorin,Сергей Егорин,M,Pro Open,Raw,90,87.5,,162.5,,162.5,4
Batyr Maudinov,Батыр Маудинов,M,Pro Open,Raw,100,94.9,,202.5,,202.5,1
Mukhtar Imanbaev,Мухтар Иманбаев,M,Pro Open,Raw,100,99.5,,175,,175,2
Mardachev Aleksandr,Мардачев Александр,M,Pro Open,Wraps,82.5,82.2,140,130,150,420,1
Galiya Aymagamabetova,Галия Аймагамабетова,F,Pro Master 50-59,Wraps,56,54.1,40,35,85,160,1
Madina Yusupova,Мадина Юсупова,F,Pro Open,Wraps,48,48,60,35,60,155,1
Olga Tray,Ольга Трай,F,Pro Open,Wraps,60,57.1,110,67.5,130,307.5,2
Elina Ponomareva,Элина Пономарева,F,Pro Open,Wraps,60,60,125,60,150,335,1
Sofya Stepanova,Софья Степанова,F,Pro Open,Wraps,67.5,63.4,70,40,110,220,1
Anastasiya Drygant,Анастасия Дрыгант,F,Pro Open,Wraps,56,55.2,100,47.5,132.5,280,1
Anastasiya Mishina,Анастасия Мишина,F,Pro Open,Wraps,67.5,66,140,75,115,330,1
Marina Sakhranova,Марина Сахранова,F,Pro Open,Wraps,60,58.7,70,45,115,230,1
Galiya Aymagamabetova,Галия Аймагамабетова,F,Pro Master 50-59,Raw,56,54.1,,35,,35,1
Natalya Vytnova,Наталья Вытнова,F,Pro Open,Raw,56,55,,72.5,,72.5,1
Valentina Tarasova,Валентина Тарасова,F,Pro Open,Raw,52,50.7,,72.5,,72.5,1
Anastasiya Mishina,Анастасия Мишина,F,Pro Open,Raw,67.5,66,,75,,75,1
Sharopova Surayo,Шаропова Сураё,F,Pro Open,Wraps,90,90,170,100,180,450,1
Mariya Mikhaylova,Мария Михайлова,F,Pro Open,Raw,75,71.7,,95,,95,1
