Place,Name,Sex,Event,Division,WeightClassKg,Equipment,BirthYear,State,BodyweightKg,Squat1Kg,Squat2Kg,Squat3Kg,Best3SquatKg,Bench1Kg,Bench2Kg,Bench3Kg,Best3BenchKg,Deadlift1Kg,Deadlift2Kg,Deadlift3Kg,Best3DeadliftKg,TotalKg
1,Lucas Pribble,M,B,O,83,Single-ply,1995,VA,82.10,,,,,165,182.5,185,185.0,,,,,185
1,Madeleine McElfresh,F,SBD,R-JR,57,Raw,1997,VA,54.70,82.5,87.5,-92.5,87.5,57.5,60,-62.5,60.0,107.5,112.5,117.5,117.5,265
2,Elyssa Gallagher,F,SBD,R-JR,57,Raw,1996,VA,52.70,75,77.5,-82.5,77.5,47.5,50,-52.5,50.0,110,115,120,120.0,247.5
1,Kerstein Joan Delacruz,F,SBD,R-JR,72,Raw,1997,VA,63.30,100,107.5,-112.5,107.5,42.5,47.5,52.5,52.5,100,107.5,112.5,112.5,272.5
1,Keanne Henry,F,SBD,R-M1a,72,Raw,1977,MD,69.10,117.5,125,127.5,127.5,75,80,82.5,82.5,125,130,140,140.0,350
1,Leah Austin,F,SBD,R-M2a,63,Raw,1966,VA,62.20,65,70,75,75.0,40,45,-47.5,45.0,97.5,102.5,105,105.0,225
1,Jennifer Reed,F,SBD,R-M2a,72,Raw,1966,VA,68.10,85,90,95,95.0,35,40,45,45.0,85,95,102.5,102.5,242.5
1,Jeanne Murdock,F,SBD,R-M3a,63,Raw,1952,VA,62.70,-60,60,62.5,62.5,45,47.5,50,50.0,95,100,-102.5,100.0,212.5
1,Rachel Wolfe,F,SBD,R-O,52,Raw,2000,VA,49.80,90,95,-100,95.0,45,47.5,50,50.0,95,102.5,107.5,107.5,252.5
1,Jeannette Champlain,F,SBD,R-O,57,Raw,1989,VA,52.80,120,127.5,135,135.0,77.5,82.5,-90,82.5,117.5,125,132.5,132.5,350
2,Madeleine McElfresh,F,SBD,R-O,57,Raw,1997,VA,54.70,82.5,87.5,-92.5,87.5,57.5,60,-62.5,60.0,107.5,112.5,117.5,117.5,265
3,Elyssa Gallagher,F,SBD,R-O,57,Raw,1996,VA,52.70,75,77.5,-82.5,77.5,47.5,50,-52.5,50.0,110,115,120,120.0,247.5
1,Jenna Sollner,F,SBD,R-O,63,Raw,1989,VA,61.40,120,130,-140,130.0,72.5,75,-77.5,75.0,142.5,150,-155,150.0,355
2,Katherine Kelly,F,SBD,R-O,63,Raw,1991,NJ,61.60,102.5,112.5,115,115.0,62.5,67.5,70,70.0,107.5,117.5,125,125.0,310
3,Jessica Raze,F,SBD,R-O,63,Raw,1990,VA,61.90,105,112.5,-115,112.5,50,55,-57.5,55.0,120,130,-140,130.0,297.5
4,Rachel Leach,F,SBD,R-O,63,Raw,1994,VA,57.40,92.5,97.5,102.5,102.5,60,65,70,70.0,110,117.5,-122.5,117.5,290
5,Leah Austin,F,SBD,R-O,63,Raw,1966,VA,62.20,65,70,75,75.0,40,45,-47.5,45.0,97.5,102.5,105,105.0,225
6,Jeanne Murdock,F,SBD,R-O,63,Raw,1952,VA,62.70,-60,60,62.5,62.5,45,47.5,50,50.0,95,100,-102.5,100.0,212.5
1,Esther Scott,F,SBD,R-O,72,Raw,1984,VA,71.70,142.5,150,155,155.0,82.5,87.5,92.5,92.5,145,155,162.5,162.5,410
2,Nicci Pritchett,F,SBD,R-O,72,Raw,1988,VA,67.40,125,132.5,140,140.0,65,70,72.5,72.5,140,147.5,150,150.0,362.5
3,Nora Sanzo,F,SBD,R-O,72,Raw,1994,VA,70.90,122.5,130,135,135.0,62.5,67.5,-70,67.5,-142.5,142.5,152.5,152.5,355
4,Keanne Henry,F,SBD,R-O,72,Raw,1977,MD,69.10,117.5,125,127.5,127.5,75,80,82.5,82.5,125,130,140,140.0,350
5,Tara Torlone,F,SBD,R-O,72,Raw,1982,VA,66.60,130,-140,-150,130.0,62.5,67.5,72.5,72.5,122.5,125,-130,125.0,327.5
6,Lyndsey Smith,F,SBD,R-O,72,Raw,1989,VA,65.10,107.5,112.5,115,115.0,62.5,65,67.5,67.5,117.5,122.5,127.5,127.5,310
7,Elizabeth Kleveno,F,SBD,R-O,72,Raw,1994,VA,70.30,102.5,107.5,110,110.0,67.5,70,72.5,72.5,110,117.5,125,125.0,307.5
8,Jaimie Clougher,F,SBD,R-O,72,Raw,1985,VA,66.20,90,95,102.5,102.5,45,47.5,50,50.0,125,137.5,-140,137.5,290
9,Olivia Sheeks,F,SBD,R-O,72,Raw,1988,VA,71.80,102.5,107.5,-112.5,107.5,-57.5,60,62.5,62.5,107.5,110,115,115.0,285
10,Kerstein Joan Delacruz,F,SBD,R-O,72,Raw,1997,VA,63.30,100,107.5,-112.5,107.5,42.5,47.5,52.5,52.5,100,107.5,112.5,112.5,272.5
11,Nicole Valenzuela,F,SBD,R-O,72,Raw,1994,MD,68.20,80,87.5,95,95.0,65,67.5,72.5,72.5,85,95,105,105.0,272.5
12,Jennifer Reed,F,SBD,R-O,72,Raw,1966,VA,68.10,85,90,95,95.0,35,40,45,45.0,85,95,102.5,102.5,242.5
1,Jacqueline Walker,F,SBD,R-O,84,Raw,1997,NC,78.20,110,115,120,120.0,52.5,57.5,-60,57.5,137.5,145,152.5,152.5,330
1,Kopper Carter,F,SBD,R-O,84+,Raw,1992,VA,115.90,-175,175,190,190.0,110,117.5,120,120.0,185,197.5,207.5,207.5,517.5
2,Alyssa Alig,F,SBD,R-O,84+,Raw,1987,VA,93.70,135,142.5,-152.5,142.5,70,77.5,-80,77.5,145,152.5,162.5,162.5,382.5
3,Melissa Brinkley,F,SBD,R-O,84+,Raw,1992,VA,87.10,105,112.5,120,120.0,45,52.5,-60,52.5,125,132.5,140,140.0,312.5
4,Christina Paugh,F,SBD,R-O,84+,Raw,1983,VA,109.70,105,115,120,120.0,57.5,62.5,-67.5,62.5,110,117.5,127.5,127.5,310
5,Clare Wallace,F,SBD,R-O,84+,Raw,1988,VA,103.60,90,95,100,100.0,55,57.5,62.5,62.5,110,117.5,122.5,122.5,285
1,Josiah Vivero,M,SBD,R-JR,74,Raw,1995,VA,73.80,225,232.5,235,235.0,147.5,152.5,157.5,157.5,260,-270,277.5,277.5,670
1,Yung Huang,M,SBD,R-JR,83,Raw,1995,VA,82.30,217.5,227.5,-235,227.5,132.5,142.5,145,145.0,267.5,277.5,282.5,282.5,655
2,Garrett Wralstad,M,SBD,R-JR,83,Raw,1996,VA,80.50,217.5,230,237.5,237.5,-135,145,155,155.0,215,227.5,235,235.0,627.5
3,Kyle Parrish,M,SBD,R-JR,83,Raw,1997,VA,81.00,207.5,220,-230,220.0,-157.5,162.5,-170,162.5,227.5,237.5,-245,237.5,620
1,Sebastian Baytan,M,SBD,R-JR,93,Raw,1996,VA,90.30,257.5,265,-282.5,265.0,155,-162.5,-162.5,155.0,252.5,265,275,275.0,695
2,Samuel Pettit,M,SBD,R-JR,93,Raw,1996,VA,90.10,187.5,212.5,227.5,227.5,132.5,137.5,142.5,142.5,227.5,240,-247.5,240.0,610
3,Brandon Beatty,M,SBD,R-JR,93,Raw,1996,MD,92.50,192.5,197.5,205,205.0,-142.5,-147.5,147.5,147.5,222.5,235,252.5,252.5,605
4,Christian Bambao,M,SBD,R-JR,93,Raw,1994,VA,91.40,187.5,197.5,205,205.0,132.5,140,147.5,147.5,-200,-200,200,200.0,552.5
5,Ian Little,M,SBD,R-JR,93,Raw,1996,VA,92.40,182.5,-187.5,-187.5,182.5,125,130,-137.5,130.0,197.5,202.5,-207.5,202.5,515
1,Michael Seifert,M,SBD,R-JR,105,Raw,1995,VA,104.40,220,230,237.5,237.5,160,170,-175,170.0,250,260,270,270.0,677.5
2,John Heilman,M,SBD,R-JR,105,Raw,1995,VA,100.90,185,192.5,205,205.0,125,135,142.5,142.5,247.5,260,272.5,272.5,620
3,Daniel De Angelis,M,SBD,R-JR,105,Raw,1996,VA,99.70,167.5,177.5,-185,177.5,125,132.5,-137.5,132.5,210,217.5,230,230.0,540
1,Scott Toms,M,SBD,R-JR,120,Raw,1997,VA,116.70,235,250,262.5,262.5,157.5,165,172.5,172.5,227.5,250,257.5,257.5,692.5
1,Jonathan Malashevich,M,SBD,R-JR,120+,Raw,1997,VA,123.50,225,230,235,235.0,165,170,-172.5,170.0,285,297.5,-302.5,297.5,702.5
1,Mark Levine,M,SBD,R-M1a,83,Raw,1970,VA,76.40,147.5,155,162.5,162.5,95,-100,102.5,102.5,182.5,195,-205,195.0,460
1,Jeff Shad,M,SBD,R-M2a,74,Raw,1964,VA,73.40,125,-137.5,137.5,137.5,90,97.5,100,100.0,180,192.5,-205,192.5,430
1,Josiah Vivero,M,SBD,R-O,74,Raw,1995,VA,73.80,225,232.5,235,235.0,147.5,152.5,157.5,157.5,260,-270,277.5,277.5,670
2,Dylan Dickens,M,SBD,R-O,74,Raw,1998,VA,67.40,167.5,175,182.5,182.5,100,105,110,110.0,210,220,-222.5,220.0,512.5
3,Jeff Shad,M,SBD,R-O,74,Raw,1964,VA,73.40,125,-137.5,137.5,137.5,90,97.5,100,100.0,180,192.5,-205,192.5,430
1,Yung Huang,M,SBD,R-O,83,Raw,1995,VA,82.30,217.5,227.5,-235,227.5,132.5,142.5,145,145.0,267.5,277.5,282.5,282.5,655
2,Garrett Wralstad,M,SBD,R-O,83,Raw,1996,VA,80.50,217.5,230,237.5,237.5,-135,145,155,155.0,215,227.5,235,235.0,627.5
3,Kyle Parrish,M,SBD,R-O,83,Raw,1997,VA,81.00,207.5,220,-230,220.0,-157.5,162.5,-170,162.5,227.5,237.5,-245,237.5,620
4,Quinten Walker,M,SBD,R-O,83,Raw,1990,VA,82.60,200,210,217.5,217.5,122.5,130,137.5,137.5,230,245,252.5,252.5,607.5
5,Christopher Roth,M,SBD,R-O,83,Raw,1993,VA,79.00,212.5,220,230,230.0,120,127.5,135,135.0,230,237.5,-250,237.5,602.5
6,Adrian Lucero,M,SBD,R-O,83,Raw,1990,VA,81.60,190,197.5,205,205.0,127.5,132.5,-140,132.5,240,252.5,265,265.0,602.5
7,DanAngelo Cabal,M,SBD,R-O,83,Raw,1990,VA,81.50,175,185,197.5,197.5,140,150,-155,150.0,220,235,252.5,252.5,600
8,Timothy Sharp,M,SBD,R-O,83,Raw,1990,VA,81.70,205,210,-212.5,210.0,140,-145,145,145.0,225,230,235,235.0,590
9,David Martinez #4,M,SBD,R-O,83,Raw,1988,DC,82.40,195,205,210,210.0,117.5,122.5,125,125.0,235,245,255,255.0,590
10,Rodney Khuu,M,SBD,R-O,83,Raw,1993,VA,82.70,195,-205,-205,195.0,140,145,-150,145.0,225,235,242.5,242.5,582.5
11,Wilson Lam,M,SBD,R-O,83,Raw,1993,VA,81.20,185,197.5,207.5,207.5,117.5,125,130,130.0,195,205,-217.5,205.0,542.5
12,Ben Delgado,M,SBD,R-O,83,Raw,1992,VA,83.00,172.5,185,190,190.0,115,122.5,125,125.0,197.5,207.5,215,215.0,530
13,Brandon Fitzpatrick,M,SBD,R-O,83,Raw,1999,VA,76.70,165,175,182.5,182.5,-97.5,102.5,107.5,107.5,-205,215,227.5,227.5,517.5
14,Jacob Ambrosius,M,SBD,R-O,83,Raw,1988,VA,81.60,165,177.5,187.5,187.5,97.5,105,-115,105.0,185,202.5,-215,202.5,495
15,Mark Levine,M,SBD,R-O,83,Raw,1970,VA,76.40,147.5,155,162.5,162.5,95,-100,102.5,102.5,182.5,195,-205,195.0,460
16,Steven Swearingen,M,SBD,R-O,83,Raw,1989,VA,82.10,135,142.5,150,150.0,97.5,102.5,-107.5,102.5,162.5,-172.5,-172.5,162.5,415
17,Tin Nguyen,M,SBD,R-O,83,Raw,1998,VA,81.00,127.5,137.5,147.5,147.5,75,85,-95,85.0,147.5,170,-177.5,170.0,402.5
1,Blaine Wilson Iv,M,SBD,R-O,93,Raw,1999,PA,87.70,245,255,265,265.0,172.5,180,-185,180.0,240,250,-257.5,250.0,695
2,Sebastian Baytan,M,SBD,R-O,93,Raw,1996,VA,90.30,257.5,265,-282.5,265.0,155,-162.5,-162.5,155.0,252.5,265,275,275.0,695
3,Joshua Anderson,M,SBD,R-O,93,Raw,1987,OR,91.60,222.5,235,-242.5,235.0,170,180,190,190.0,237.5,242.5,247.5,247.5,672.5
4,Victor Sandru,M,SBD,R-O,93,Raw,1997,VA,92.80,225,-235,235,235.0,160,167.5,-170,167.5,257.5,267.5,-277.5,267.5,670
5,Clifton McGlone II,M,SBD,R-O,93,Raw,1991,VA,90.10,192.5,202.5,210,210.0,145,155,160,160.0,240,255,-265,255.0,625
6,Adrian Acuna,M,SBD,R-O,93,Raw,1994,VA,90.20,-222.5,222.5,230,230.0,120,127.5,-130,127.5,240,250,255,255.0,612.5
7,Samuel Pettit,M,SBD,R-O,93,Raw,1996,VA,90.10,187.5,212.5,227.5,227.5,132.5,137.5,142.5,142.5,227.5,240,-247.5,240.0,610
8,Kevin McCloskey,M,SBD,R-O,93,Raw,1978,VA,92.50,200,207.5,220,220.0,150,-157.5,162.5,162.5,200,215,227.5,227.5,610
9,Brandon Beatty,M,SBD,R-O,93,Raw,1996,MD,92.90,192.5,197.5,205,205.0,-142.5,-147.5,147.5,147.5,222.5,235,252.5,252.5,605
10,Samuel Young,M,SBD,R-O,93,Raw,1976,VA,91.30,192.5,202.5,207.5,207.5,135,140,-142.5,140.0,230,245,252.5,252.5,600
11,Brian Emejuru,M,SBD,R-O,93,Raw,1990,VA,91.90,187.5,195,210,210.0,-137.5,145,-157.5,145.0,192.5,210,235,235.0,590
12,Leonardo Bonett-Endara,M,SBD,R-O,93,Raw,1990,VA,89.10,177.5,187.5,192.5,192.5,120,125,-127.5,125.0,215,227.5,237.5,237.5,555
13,Christian Bambao,M,SBD,R-O,93,Raw,1994,VA,91.40,187.5,197.5,205,205.0,132.5,140,147.5,147.5,-200,-200,200,200.0,552.5
14,James Zaller,M,SBD,R-O,93,Raw,1993,VA,87.50,175,182.5,192.5,192.5,120,122.5,130,130.0,217.5,227.5,-230,227.5,550
15,Corey Jameson,M,SBD,R-O,93,Raw,1999,VA,92.20,187.5,195,-200,195.0,132.5,-142.5,142.5,142.5,200,210,212.5,212.5,550
16,Ian Little,M,SBD,R-O,93,Raw,1996,VA,92.40,182.5,-187.5,-187.5,182.5,125,130,-137.5,130.0,197.5,202.5,-207.5,202.5,515
17,John Roy,M,SBD,R-O,93,Raw,1985,PA,86.90,165,172.5,-182.5,172.5,120,-127.5,-127.5,120.0,200,-217.5,217.5,217.5,510
18,Justin Miller,M,SBD,R-O,93,Raw,1983,VA,91.90,157.5,167.5,172.5,172.5,112.5,117.5,-125,117.5,195,205,210,210.0,500
19,Pablo Ortiz,M,SBD,R-O,93,Raw,1978,VA,92.10,-155,155,-167.5,155.0,125,-137.5,-137.5,125.0,165,175,182.5,182.5,462.5
1,Jonathan Davis,M,SBD,R-O,105,Raw,1994,VA,104.20,257.5,-272.5,272.5,272.5,157.5,165,170,170.0,257.5,272.5,285,285.0,727.5
2,Travis Stewart,M,SBD,R-O,105,Raw,1993,VA,104.10,237.5,250,257.5,257.5,147.5,162.5,165,165.0,247.5,265,277.5,277.5,700
3,Cesar Consiglieri,M,SBD,R-O,105,Raw,1996,VA,95.40,220,237.5,245,245.0,142.5,150,155,155.0,265,280,295,295.0,695
4,Michael Seifert,M,SBD,R-O,105,Raw,1995,VA,104.40,220,230,237.5,237.5,160,170,-175,170.0,250,260,270,270.0,677.5
5,Jordan Haas,M,SBD,R-O,105,Raw,1996,VA,101.20,207.5,220,-235,220.0,142.5,152.5,155,155.0,265,280,285,285.0,660
6,Roy Andrew,M,SBD,R-O,105,Raw,1967,VA,105.00,202.5,215,227.5,227.5,147.5,157.5,165,165.0,242.5,257.5,262.5,262.5,655
7,Tyler Downes,M,SBD,R-O,105,Raw,1993,VA,95.50,185,195,202.5,202.5,137.5,145,-150,145.0,240,255,272.5,272.5,620
8,John Heilman,M,SBD,R-O,105,Raw,1995,VA,100.90,185,192.5,205,205.0,125,135,142.5,142.5,247.5,260,272.5,272.5,620
9,Jordan Stillwell,M,SBD,R-O,105,Raw,1993,VA,103.90,207.5,-220,-227.5,207.5,135,142.5,150,150.0,235,-245,-245,235.0,592.5
10,Brandon Aiello,M,SBD,R-O,105,Raw,1990,VA,98.70,187.5,197.5,202.5,202.5,130,135,-140,135.0,235,245,-252.5,245.0,582.5
11,Arodis Melgar,M,SBD,R-O,105,Raw,1994,VA,95.50,197.5,207.5,217.5,217.5,117.5,122.5,125,125.0,205,215,217.5,217.5,560
12,Patrick Aviles,M,SBD,R-O,105,Raw,1991,MD,101.50,160,177.5,-190,177.5,-115,115,-125,115.0,225,260,-272.5,260.0,552.5
13,Toriqul Anik,M,SBD,R-O,105,Raw,1991,VA,104.30,187.5,192.5,207.5,207.5,117.5,125,-130,125.0,197.5,210,215,215.0,547.5
14,Daniel De Angelis,M,SBD,R-O,105,Raw,1996,VA,99.70,167.5,177.5,-185,177.5,125,132.5,-137.5,132.5,210,217.5,230,230.0,540
15,Ryan Austin,M,SBD,R-O,105,Raw,1992,VA,100.20,167.5,177.5,-185,177.5,142.5,150,-160,150.0,185,197.5,210,210.0,537.5
16,Jacob Willis,M,SBD,R-O,105,Raw,1989,VA,98.50,175,185,195,195.0,102.5,107.5,112.5,112.5,202.5,215,227.5,227.5,535
1,Dylan Smith,M,SBD,R-O,120,Raw,1988,VA,109.90,235,247.5,257.5,257.5,180,190,200,200.0,250,265,272.5,272.5,730
2,Nikita Logan,M,SBD,R-O,120,Raw,1989,VA,118.20,245,260,272.5,272.5,172.5,-182.5,-182.5,172.5,250,265,285,285.0,730
3,Calvin Roberts,M,SBD,R-O,120,Raw,1989,VA,112.30,237.5,262.5,-272.5,262.5,152.5,175,182.5,182.5,237.5,267.5,272.5,272.5,717.5
4,Scott Toms,M,SBD,R-O,120,Raw,1997,VA,116.70,235,250,262.5,262.5,157.5,165,172.5,172.5,227.5,250,257.5,257.5,692.5
5,John Mendez,M,SBD,R-O,120,Raw,1988,NY,116.60,-207.5,212.5,-230,212.5,150,162.5,167.5,167.5,232.5,242.5,260,260.0,640
6,Darell Reddick,M,SBD,R-O,120,Raw,1994,VA,112.40,215,227.5,-237.5,227.5,145,152.5,160,160.0,220,235,247.5,247.5,635
7,Brandon Conner,M,SBD,R-O,120,Raw,1991,MD,117.40,210,220,227.5,227.5,157.5,165,-170,165.0,220,232.5,242.5,242.5,635
8,Nicholas Bunker,M,SBD,R-O,120,Raw,1995,VA,116.50,165,177.5,185,185.0,110,120,125,125.0,180,190,205,205.0,515
1,Jonathan Malashevich,M,SBD,R-O,120+,Raw,1997,VA,123.50,225,230,235,235.0,165,170,-172.5,170.0,285,297.5,-302.5,297.5,702.5
1,Dylan Dickens,M,SBD,R-T3,74,Raw,1998,VA,67.40,167.5,175,182.5,182.5,100,105,110,110.0,210,220,-222.5,220.0,512.5
1,Blaine Wilson Iv,M,SBD,R-T3,93,Raw,1999,PA,87.70,245,255,265,265.0,172.5,180,-185,180.0,240,250,-257.5,250.0,695
2,Corey Jameson,M,SBD,R-T3,93,Raw,1999,VA,92.20,187.5,195,-200,195.0,132.5,-142.5,142.5,142.5,200,210,212.5,212.5,550
1,Joah Iannotta,F,BD,R-M1a,84,Raw,1973,VA,75.30,,,,,92.5,97.5,100,100.0,150,160,170,170.0,270
1,Joah Iannotta,F,BD,R-O,84,Raw,1973,VA,75.30,,,,,92.5,97.5,100,100.0,150,160,170,170.0,270
